Basic use • pubmedRecords
…
# Search for journal articles by RD Treede in the journal "PAIN" and 
# which were published between 1 January 2000 and 31 December 2018
df <- get_records(search_terms = "Treede RD[AU] AND Pain[TA]",
            min_date = '2000/01/01',
            max_date = '2018/12/31',
            api_key = NULL, # Add only if you have one (see documentation)
            pub_type = 'journal article',
            date_type = 'PDAT')

Have a quick look at the output.

# Print first 10 lines
print(df)

## # A tibble: 1,933 × 12
##    surname initi…¹ title journal status volume pages year_…² year_…³ pmid  doi  
##    <chr>   <chr>   <chr> <chr>   <chr>  <chr>  <chr> <chr>   <chr>   <chr> <chr>
##  1 zou     l       the … acs ch… ppubl… 10     1318… 2019    2018    3047… 10.1…
##  2 yu      k       the … acs ch… ppubl… 10     1318… 2019    2018    3047… 10.1…
##  3 fan     y       the … acs ch… ppubl… 10     1318… 2019    2018    3047… 10.1…
##  4 cao     s       the … acs ch… ppubl… 10     1318… 2019    2018    3047… 10.1…
##  5 liu     s       the … acs ch… ppubl… 10     1318… 2019    2018    3047… 10.1…
##  6 shi     l       the … acs ch… ppubl… 10     1318… 2019    2018    3047… 10.1…
##  7 li      l       the … acs ch… ppubl… 10     1318… 2019    2018    3047… 10.1…
##  8 yuan    h       the … acs ch… ppubl… 10     1318… 2019    2018    3047… 10.1…
##  9 yang    r       the … acs ch… ppubl… 10     1318… 2019    2018    3047… 10.1…
## 10 yi      z       the … acs ch… ppubl… 10     1318… 2019    2018    3047… 10.1…
## # … with 1,923 more rows, 1 more variable: abstract <chr>, and abbreviated
## #   variable names ¹​initials, ²​year_published, ³​year_online
…
